{
  "BaseResp": {
    "StatusCode": 0,
    "StatusMessage": "success"
  },
  "code": 0,
  "data": {
    "common_list_info": {
      "cursor": "{\"session_id\":\"20260320165451F55AB1B87A11887EBCBD\",\"offset\":1}",
      "has_more": true,
      "log_extra": {
        "recommend_info": "{\"channel_id\":\"94349564816\",\"request_id\":\"20260320165451F55AB1B87A11887EBCBD\"}"
      },
      "total": 39
    },
    "data_list": [
      {
        "comment": {
          "comment_id": "7455591408238625561",
          "common": {
            "comment_type": 0,
            "content": {
              "image_data_list": {},
              "text": "棒棒哒！非常好看喜欢"
            },
            "content_type": 0,
            "create_timestamp": 1735890542,
            "group_id": "7433045028127116313",
            "service_id": 2,
            "status": 1,
            "user_info": {
              "base_info": {
                "description": "每天开心啊，宝宝们，阴天总会过去的",
                "encode_user_id": "#c1967_MTk2NzE5NjcxOTY3MTk2N/LH/vsWNTcaQ1fgqDqVk1DjX52+5O1IO8ae8gJEK0PW",
                "gender": 2,
                "is_cancelled": false,
                "profile_gender": 0,
                "user_avatar": "http://p3-reading-sign.fqnovelpic.com/tos-cn-i-1yzifmftcy/d24a9cca7998488d82bf04fc3e698692~tplv-s85hriknmn-jpeg-v1:144:0.jpeg?lk3s=9b9bd2b1&x-expires=1776537063&x-signature=IHij2ob9M8PF0Wvf32jZSnS9PKg%3D",
                "user_id": "1235497974245543",
                "user_name": "肥侠不胖"
              },
              "expand_extra": {},
              "user_id": "1235497974245543",
              "user_relation": {
                "can_follow": true,
                "relation_type": 1
              },
              "user_tag": {
                "fan_rank_num": 0,
                "fan_ranklist_title": "",
                "is_author": false,
                "is_blue_vip": false,
                "is_cp": false,
                "is_official_cert": false,
                "is_vip": false,
                "user_title_info": []
              }
            }
          },
          "expand": {
            "book_id": "7433045028127116313",
            "book_info": {
              "abstract": "（双男主×学霸×学渣×双洁×校园×男作者）\n不是哥们，一觉醒来互换身体了？\n不是哥们，互换的方式还这么别致？\n不是哥们……\n怎么感觉有点香？\n室友之间因为意外互换身体而导致的一系列搞笑轻松日常，也因为这一变故，原本都不太的合群的两人，慢慢影响，互相改变……",
              "audio_thumb_uri": "https://p6-novel.byteimg.com/img/novel-pic/p2oaa3c8153f40679ca032cf317d34050d9~tplv-tt-cs0:440:440.image",
              "author": "荒非",
              "author_id": "",
              "book_id": "7433045028127116313",
              "book_name": "不是哥们，互换身体了？",
              "book_short_name": "",
              "book_type": "0",
              "color_dominate": "#e0b880",
              "creation_status": "0",
              "genre": "0",
              "genre_type": "0",
              "read_count_text": "潜力好书",
              "reader_schema": {
                "authorize_type": "1",
                "category_schema": "[{\"category_id\":275,\"name\":\"双男主\",\"schema\":\"dragon1967://newCategoryDetail?id=275&name=双男主&genre_type=0&gender=0&source=detail\"},{\"category_id\":4,\"name\":\"校园\",\"schema\":\"dragon1967://newCategoryDetail?id=4&name=校园&genre_type=0&gender=0&source=detail\"},{\"category_id\":82,\"name\":\"学霸\",\"schema\":\"dragon1967://newCategoryDetail?id=82&name=学霸&genre_type=0&gender=0&source=detail\"},{\"category_id\":702,\"name\":\"双洁\",\"schema\":\"dragon1967://newCategoryDetail?id=702&name=双洁&genre_type=0&gender=0&source=detail\"},{\"category_id\":757,\"name\":\"现代\",\"schema\":\"dragon1967://newCategoryDetail?id=757&name=现代&genre_type=0&gender=0&source=detail\"},{\"category_id\":831,\"name\":\"灵魂互换\",\"schema\":\"dragon1967://newCategoryDetail?id=831&name=灵魂互换&genre_type=0&gender=0&source=detail\"},{\"category_id\":1012,\"name\":\"纯爱\",\"schema\":\"dragon1967://newCategoryDetail?id=1012&name=纯爱&genre_type=0&gender=0&source=detail\"}]",
                "first_chapter_item_id": "7433045162311287321",
                "read_count": "221",
                "title_page_tags": "",
                "word_number": "313551"
              },
              "relate_post_id": "",
              "relate_post_schema": "",
              "score": "6.5",
              "serial_count": "147",
              "tags": "双男主,校园,学霸,双洁,现代,灵魂互换,纯爱",
              "thumb_url": "https://p3-reading-sign.fqnovelpic.com/novel-pic/p2oaa3c8153f40679ca032cf317d34050d9~tplv-noop.image?lk3s=9b9bd2b1&x-expires=1779180891&x-signature=Ubomq5p5M9Zl9%2Fl5pdTVnRGlL64%3D",
              "tomato_book_status": "1"
            },
            "book_info_list": [],
            "common_stat": {},
            "creator_id": "2075484204576647",
            "extra": {
              "comment_jump_schema": "",
              "novelapp_read_item_cnt": "96"
            },
            "log_extra": {
              "recommend_info": "{\"channel_id\":\"94349564816\",\"request_id\":\"20260320165451F55AB1B87A11887EBCBD\"}"
            },
            "relate_info_list": [],
            "reply_show_count": 1,
            "reply_show_row": 3,
            "score": "10",
            "score_suffix_text": "阅读8小时后点评"
          },
          "stat": {
            "digg_count": 0,
            "forwarded_count": 0,
            "listen_duration": 13813,
            "read_book_count": 0,
            "read_duration": 27030,
            "reply_count": 0,
            "show_pv": 639
          },
          "user_action": {
            "author": 0,
            "is_author_stick": false,
            "stick_position": 0,
            "user_digg": false,
            "user_disagree": false
          }
        },
        "data_type": 4
      }
    ],
    "extra": {
      "book_info": {
        "abstract": "（双男主×学霸×学渣×双洁×校园×男作者）\n不是哥们，一觉醒来互换身体了？\n不是哥们，互换的方式还这么别致？\n不是哥们……\n怎么感觉有点香？\n室友之间因为意外互换身体而导致的一系列搞笑轻松日常，也因为这一变故，原本都不太的合群的两人，慢慢影响，互相改变……",
        "audio_thumb_uri": "https://p6-novel.byteimg.com/img/novel-pic/p2oaa3c8153f40679ca032cf317d34050d9~tplv-tt-cs0:440:440.image",
        "author": "荒非",
        "author_id": "",
        "book_id": "7433045028127116313",
        "book_name": "不是哥们，互换身体了？",
        "book_short_name": "",
        "book_type": "0",
        "color_dominate": "#e0b880",
        "creation_status": "0",
        "genre": "0",
        "genre_type": "0",
        "read_count_text": "潜力好书",
        "reader_schema": {
          "authorize_type": "1",
          "category_schema": "[{\"category_id\":275,\"name\":\"双男主\",\"schema\":\"dragon1967://newCategoryDetail?id=275&name=双男主&genre_type=0&gender=0&source=detail\"},{\"category_id\":4,\"name\":\"校园\",\"schema\":\"dragon1967://newCategoryDetail?id=4&name=校园&genre_type=0&gender=0&source=detail\"},{\"category_id\":82,\"name\":\"学霸\",\"schema\":\"dragon1967://newCategoryDetail?id=82&name=学霸&genre_type=0&gender=0&source=detail\"},{\"category_id\":702,\"name\":\"双洁\",\"schema\":\"dragon1967://newCategoryDetail?id=702&name=双洁&genre_type=0&gender=0&source=detail\"},{\"category_id\":757,\"name\":\"现代\",\"schema\":\"dragon1967://newCategoryDetail?id=757&name=现代&genre_type=0&gender=0&source=detail\"},{\"category_id\":831,\"name\":\"灵魂互换\",\"schema\":\"dragon1967://newCategoryDetail?id=831&name=灵魂互换&genre_type=0&gender=0&source=detail\"},{\"category_id\":1012,\"name\":\"纯爱\",\"schema\":\"dragon1967://newCategoryDetail?id=1012&name=纯爱&genre_type=0&gender=0&source=detail\"}]",
          "first_chapter_item_id": "7433045162311287321",
          "read_count": "221",
          "title_page_tags": "",
          "word_number": "313551"
        },
        "relate_post_id": "",
        "relate_post_schema": "",
        "score": "6.5",
        "serial_count": "147",
        "tags": "双男主,校园,学霸,双洁,现代,灵魂互换,纯爱",
        "thumb_url": "https://p3-reading-sign.fqnovelpic.com/novel-pic/p2oaa3c8153f40679ca032cf317d34050d9~tplv-noop.image?lk3s=9b9bd2b1&x-expires=1779180891&x-signature=Ubomq5p5M9Zl9%2Fl5pdTVnRGlL64%3D",
        "tomato_book_status": "1"
      },
      "score_cnt": 101,
      "score_text": "101人点评"
    }
  },
  "debug_info": "",
  "log_id": "20260320165451F55AB1B87A11887EBCBD",
  "message": "请求成功"
}