{
  "BaseResp": {
    "StatusCode": 0,
    "StatusMessage": "success"
  },
  "code": 0,
  "data": {
    "common_list_info": {
      "cursor": "{\"session_id\":\"20260321212604A8CA3B3FE4D494B7BED0\",\"offset\":1}",
      "has_more": true,
      "log_extra": {
        "recommend_info": "{\"channel_id\":\"94349564816\",\"request_id\":\"20260321212604A8CA3B3FE4D494B7BED0\"}"
      },
      "total": 1929
    },
    "data_list": [
      {
        "comment": {
          "comment_id": "7220096913537827636",
          "common": {
            "comment_type": 0,
            "content": {
              "image_data_list": {},
              "text": "刚看完，不错"
            },
            "content_type": 0,
            "create_timestamp": 1681060097,
            "group_id": "7206005437567601675",
            "service_id": 2,
            "status": 1,
            "user_info": {
              "base_info": {
                "description": "我书架上的书，除了分组在看的书，其他的不推荐(. ❛ ᴗ ❛.)",
                "encode_user_id": "#c1967_MTk2NzE5NjcxOTY3MTk2N6BPTVYwgb+w5DEjqNtT/Ck=",
                "gender": 1,
                "is_cancelled": false,
                "profile_gender": 1,
                "user_avatar": "http://p3-reading-sign.fqnovelpic.com/tos-cn-i-1yzifmftcy/3631790e8b6840eeb7bc54af7b9cc95f~tplv-s85hriknmn-jpeg-v1:144:0.jpeg?lk3s=9b9bd2b1&x-expires=1776621326&x-signature=05XHSsgjjGSsSZcI0NjSsQtXzM0%3D",
                "user_id": "110771838364",
                "user_name": "雅无"
              },
              "expand_extra": {},
              "user_id": "110771838364",
              "user_relation": {
                "can_follow": true,
                "relation_type": 1
              },
              "user_tag": {
                "fan_rank_num": 0,
                "fan_ranklist_title": "",
                "is_author": false,
                "is_blue_vip": false,
                "is_cp": false,
                "is_official_cert": false,
                "is_vip": true,
                "sticker": {
                  "expire_time": 1776165072,
                  "is_worn": true,
                  "sticker": {
                    "add_context": "",
                    "bg_color": "#FFF3DD",
                    "can_worn": false,
                    "id": 2,
                    "name": "永不书荒",
                    "small_url": "https://p6-novel.byteimg.com/origin/novel-static/2c704b96a929a7a8b3461ddbf49a8d01",
                    "sticker_type": 1,
                    "url": "https://p3-novel.byteimg.com/origin/novel-static/b93ef223f8131d9ee8e8312f642d9681"
                  }
                },
                "user_title_info": [
                  {
                    "en_title": "svip",
                    "icon": "{\"icon_default_url\":\"https://p6-novel.byteimg.com/origin/novel-static/07d37b2c30d271228698f77f4f7f7daf\",\"icon_dark_url\":\"https://p6-novel.byteimg.com/origin/novel-static/d67f15fefbb4470bb54c773eb84e90d8\",\"icon_width\":26,\"icon_height\":16}",
                    "intro": "{\"title_name\":\"svip\",\"title_id\":\"svip\",\"icon_type\":1}",
                    "is_author_title": false,
                    "is_vip_title": true,
                    "zh_title": "svip"
                  },
                  {
                    "en_title": "author",
                    "intro": "{\"title_name\":\"作家\",\"title_id\":\"author\"}",
                    "is_author_title": true,
                    "is_vip_title": false,
                    "label": "{\"title_text\":\"作家\",\"title_default_color\":\"#FFFFFF\",\"title_dark_color\":\"#FFFFFF\",\"bg_default_color\":\"{\\\"start\\\":\\\"#FF9F31\\\",\\\"end\\\":\\\"#FFB95C\\\"}\",\"bg_dark_color\":\"{\\\"start\\\":\\\"#CC8029\\\",\\\"end\\\":\\\"#CC9349\\\"}\",\"title_dark_diaphaneity\":\"CC\"}",
                    "zh_title": "作家"
                  }
                ]
              }
            }
          },
          "expand": {
            "book_id": "7206005437567601675",
            "book_info": {
              "abstract": "这个穿越似乎不大对劲？\n请问穿越到修仙界是个平平无奇路人甲，开局金手指是一个制杖面板，被卖给画符铺子老板打工且因为闭关濒临饿死，这样的人生还有救吗？\n还有请问被弃养算不算父母祭天啊？等到方明了混到金丹，发觉接近她的男人九成九是谋财害命骗钱时她才不禁怒上心头。\n该死，这个修仙大有问题！",
              "audio_thumb_uri": "https://p3-novel.byteimg.com/origin/novel-static/75923cb5cd5d744c4f89047485c22959",
              "author": "寒兮帝",
              "author_id": "",
              "book_id": "7206005437567601675",
              "book_name": "日常的修仙生活",
              "book_short_name": "",
              "book_type": "0",
              "color_dominate": "#183848",
              "creation_status": "1",
              "genre": "0",
              "genre_type": "0",
              "read_count_text": "1.4万人在读",
              "reader_schema": {
                "authorize_type": "1",
                "category_schema": "[{\"category_id\":248,\"name\":\"玄幻言情\",\"schema\":\"dragon1967://newCategoryDetail?id=248&name=玄幻言情&genre_type=0&gender=0&source=detail\"},{\"category_id\":5,\"name\":\"古代言情\",\"schema\":\"dragon1967://newCategoryDetail?id=5&name=古代言情&genre_type=0&gender=0&source=detail\"},{\"category_id\":37,\"name\":\"穿越\",\"schema\":\"dragon1967://newCategoryDetail?id=37&name=穿越&genre_type=0&gender=0&source=detail\"},{\"category_id\":19,\"name\":\"系统\",\"schema\":\"dragon1967://newCategoryDetail?id=19&name=系统&genre_type=0&gender=0&source=detail\"},{\"category_id\":463,\"name\":\"今穿古\",\"schema\":\"dragon1967://newCategoryDetail?id=463&name=今穿古&genre_type=0&gender=0&source=detail\"},{\"category_id\":464,\"name\":\"异世穿越\",\"schema\":\"dragon1967://newCategoryDetail?id=464&name=异世穿越&genre_type=0&gender=0&source=detail\"}]",
                "first_chapter_item_id": "7206863897238700582",
                "read_count": "13863",
                "title_page_tags": "",
                "word_number": "2698290"
              },
              "relate_post_id": "",
              "relate_post_schema": "",
              "score": "8.8",
              "serial_count": "1312",
              "tags": "玄幻言情,古代言情,系统,穿越,今穿古,异世穿越",
              "thumb_url": "https://p3-reading-sign.fqnovelpic.com/novel-pic/5f1a5c4d381ecd1bbb68a9cc3e5fc230~tplv-noop.image?lk3s=9b9bd2b1&x-expires=1779283565&x-signature=Ct35RGcPxC72enSwma6em1zueg4%3D",
              "tomato_book_status": "1"
            },
            "book_info_list": [],
            "common_stat": {},
            "creator_id": "4490853429544511",
            "extra": {
              "comment_jump_schema": "",
              "novelapp_read_item_cnt": "1.0094551e+07"
            },
            "log_extra": {
              "recommend_info": "{\"channel_id\":\"94349564816\",\"request_id\":\"20260321212604A8CA3B3FE4D494B7BED0\"}"
            },
            "relate_info_list": [],
            "reply_show_count": 1,
            "reply_show_row": 3,
            "score": "10",
            "score_suffix_text": "阅读3小时后点评"
          },
          "stat": {
            "digg_count": 13,
            "forwarded_count": 0,
            "listen_duration": 0,
            "read_book_count": 0,
            "read_duration": 10094,
            "reply_count": 0,
            "show_pv": 7403
          },
          "user_action": {
            "author": 0,
            "is_author_stick": false,
            "stick_position": 0,
            "user_digg": false,
            "user_disagree": false
          }
        },
        "data_type": 4
      }
    ],
    "extra": {
      "book_info": {
        "abstract": "这个穿越似乎不大对劲？\n请问穿越到修仙界是个平平无奇路人甲，开局金手指是一个制杖面板，被卖给画符铺子老板打工且因为闭关濒临饿死，这样的人生还有救吗？\n还有请问被弃养算不算父母祭天啊？等到方明了混到金丹，发觉接近她的男人九成九是谋财害命骗钱时她才不禁怒上心头。\n该死，这个修仙大有问题！",
        "audio_thumb_uri": "https://p3-novel.byteimg.com/origin/novel-static/75923cb5cd5d744c4f89047485c22959",
        "author": "寒兮帝",
        "author_id": "",
        "book_id": "7206005437567601675",
        "book_name": "日常的修仙生活",
        "book_short_name": "",
        "book_type": "0",
        "color_dominate": "#183848",
        "creation_status": "1",
        "genre": "0",
        "genre_type": "0",
        "read_count_text": "1.4万人在读",
        "reader_schema": {
          "authorize_type": "1",
          "category_schema": "[{\"category_id\":248,\"name\":\"玄幻言情\",\"schema\":\"dragon1967://newCategoryDetail?id=248&name=玄幻言情&genre_type=0&gender=0&source=detail\"},{\"category_id\":5,\"name\":\"古代言情\",\"schema\":\"dragon1967://newCategoryDetail?id=5&name=古代言情&genre_type=0&gender=0&source=detail\"},{\"category_id\":37,\"name\":\"穿越\",\"schema\":\"dragon1967://newCategoryDetail?id=37&name=穿越&genre_type=0&gender=0&source=detail\"},{\"category_id\":19,\"name\":\"系统\",\"schema\":\"dragon1967://newCategoryDetail?id=19&name=系统&genre_type=0&gender=0&source=detail\"},{\"category_id\":463,\"name\":\"今穿古\",\"schema\":\"dragon1967://newCategoryDetail?id=463&name=今穿古&genre_type=0&gender=0&source=detail\"},{\"category_id\":464,\"name\":\"异世穿越\",\"schema\":\"dragon1967://newCategoryDetail?id=464&name=异世穿越&genre_type=0&gender=0&source=detail\"}]",
          "first_chapter_item_id": "7206863897238700582",
          "read_count": "13863",
          "title_page_tags": "",
          "word_number": "2698290"
        },
        "relate_post_id": "",
        "relate_post_schema": "",
        "score": "8.8",
        "serial_count": "1312",
        "tags": "玄幻言情,古代言情,系统,穿越,今穿古,异世穿越",
        "thumb_url": "https://p3-reading-sign.fqnovelpic.com/novel-pic/5f1a5c4d381ecd1bbb68a9cc3e5fc230~tplv-noop.image?lk3s=9b9bd2b1&x-expires=1779283565&x-signature=Ct35RGcPxC72enSwma6em1zueg4%3D",
        "tomato_book_status": "1"
      },
      "score_cnt": 5001,
      "score_text": "5001人点评"
    }
  },
  "debug_info": "",
  "log_id": "20260321212604A8CA3B3FE4D494B7BED0",
  "message": "请求成功"
}